…
```
## Writing CatchmentSP
```

```
## $NHDFlowline_Network
## Simple feature collection with 4340 features and 139 fields
## geometry type:  MULTILINESTRING
## dimension:      XYZ
## bbox:           xmin: -111.1124 ymin: 43.9498 xmax: -109.728 ymax: 46.2633
## z_range:        zmin: 0 zmax: 0
## geographic CRS: WGS 84
## # A tibble: 4,340 x 140
##    id     comid fdate               resolution gnis_id gnis_name lengthkm reachcode flowdir wbareacomi ftype fcode shape_length streamleve streamorde
##    <chr>  <int> <dttm>              <chr>      <chr>   <chr>        <dbl> <chr>     <chr>        <int> <chr> <int>        <dbl>      <int>      <int>
##  1 nhdf~ 2.96e6 1999-07-19 22:00:00 Medium     "78278~ "East Br~    4.75  10070001~ With D~          0 Stre~ 46006      0.0550           5          1
##  2 nhdf~ 2.96e6 1999-07-19 22:00:00 Medium     " "     " "          2.36  10070001~ With D~          0 Stre~ 46006      0.0266           5          1
##  3 nhdf~ 2.96e6 1999-07-19 22:00:00 Medium     "80093~ "Hellroa~    1.02  10070001~ With D~          0 Stre~ 46006      0.00975          4          2
##  4 nhdf~ 2.96e6 1999-07-19 22:00:00 Medium     "80147~ "Slough ~    3.67  10070001~ With D~          0 Stre~ 46006      0.0409           5          1
##  5 nhdf~ 2.96e6 1999-07-19 22:00:00 Medium     " "     " "          3.06  10070001~ With D~          0 Stre~ 46006      0.0380           6          1
##  6 nhdf~ 2.96e6 1999-07-19 22:00:00 Medium     "78727~ "Middle ~    2.11  10070001~ With D~          0 Stre~ 46006      0.0198           5          1
##  7 nhdf~ 2.96e6 1999-07-19 22:00:00 Medium     "78141~ "Clover ~    2.56  10070001~ With D~          0 Stre~ 46006      0.0292           5          1
##  8 nhdf~ 2.96e6 1999-07-19 22:00:00 Medium     " "     " "          0.673 10070001~ With D~          0 Stre~ 46006      0.00661          7          1
##  9 nhdf~ 2.96e6 1999-07-19 22:00:00 Medium     " "     " "          2.48  10070001~ With D~          0 Stre~ 46006      0.0292           6          1
## 10 nhdf~ 2.96e6 1999-07-19 22:00:00 Medium     "79050~ "Silver ~    4.36  10070001~ With D~          0 Stre~ 46006      0.0439           6          1
## # ... with 4,330 more rows, and 125 more variables: streamcalc <int>, fromnode <dbl>, tonode <dbl>, hydroseq <dbl>, levelpathi <dbl>, pathlength <dbl>,
## #   terminalpa <dbl>, arbolatesu <dbl>, divergence <int>, startflag <int>, terminalfl <int>, dnlevel <int>, uplevelpat <dbl>, uphydroseq <dbl>,
## #   dnlevelpat <dbl>, dnminorhyd <dbl>, dndraincou <int>, dnhydroseq <dbl>, frommeas <dbl>, tomeas <dbl>, rtndiv <int>, vpuin <int>, vpuout <int>,
## #   areasqkm <dbl>, totdasqkm <dbl>, divdasqkm <dbl>, tidal <int>, totma <dbl>, wbareatype <chr>, pathtimema <dbl>, hwnodesqkm <dbl>, maxelevraw <int>,
## #   minelevraw <int>, maxelevsmo <int>, minelevsmo <int>, slope <dbl>, elevfixed <chr>, hwtype <chr>, slopelenkm <dbl>, qa_ma <dbl>, va_ma <dbl>,
## #   qc_ma <dbl>, vc_ma <dbl>, qe_ma <dbl>, ve_ma <dbl>, qa_01 <dbl>, va_01 <dbl>, qc_01 <dbl>, vc_01 <dbl>, qe_01 <dbl>, ve_01 <dbl>, qa_02 <dbl>,
## #   va_02 <dbl>, qc_02 <dbl>, vc_02 <dbl>, qe_02 <dbl>, ve_02 <dbl>, qa_03 <dbl>, va_03 <dbl>, qc_03 <dbl>, vc_03 <dbl>, qe_03 <dbl>, ve_03 <dbl>,
## #   qa_04 <dbl>, va_04 <dbl>, qc_04 <dbl>, vc_04 <dbl>, qe_04 <dbl>, ve_04 <dbl>, qa_05 <dbl>, va_05 <dbl>, qc_05 <dbl>, vc_05 <dbl>, qe_05 <dbl>,
## #   ve_05 <dbl>, qa_06 <dbl>, va_06 <dbl>, qc_06 <dbl>, vc_06 <dbl>, qe_06 <dbl>, ve_06 <dbl>, qa_07 <dbl>, va_07 <dbl>, qc_07 <dbl>, vc_07 <dbl>,
## #   qe_07 <dbl>, ve_07 <dbl>, qa_08 <dbl>, va_08 <dbl>, qc_08 <dbl>, vc_08 <dbl>, qe_08 <dbl>, ve_08 <dbl>, qa_09 <dbl>, va_09 <dbl>, qc_09 <dbl>,
## #   vc_09 <dbl>, qe_09 <dbl>, ve_09 <dbl>, qa_10 <dbl>, ...
## 
## $CatchmentSP
## Simple feature collection with 4162 features and 8 fields
## geometry type:  MULTIPOLYGON
## dimension:      XY
## bbox:           xmin: -111.1212 ymin: 43.9458 xmax: -109.7225 ymax: 46.2722
## geographic CRS: WGS 84
## # A tibble: 4,162 x 9
##    id             gridcode featureid sourcefc   areasqkm shape_length shape_area bbox                                                           geometry
##    <chr>             <int>     <int> <chr>         <dbl>        <dbl>      <dbl> <list>                                               <MULTIPOLYGON [°]>
##  1 catchmentsp.1~   591564   2962262 NHDFlowli~     9.93       0.158    0.00114  <dbl [~ (((-110.323 45.201, -110.3234 45.2009, -110.3236 45.2011, -110~
##  2 catchmentsp.1~   590463   2962264 NHDFlowli~     4.13       0.0994   0.000473 <dbl [~ (((-110.3438 45.1845, -110.344 45.1847, -110.3453 45.1853, -11~
##  3 catchmentsp.1~   590838   2962266 NHDFlowli~     1.66       0.0706   0.000190 <dbl [~ (((-110.3647 45.1938, -110.3666 45.1942, -110.3687 45.1951, -1~
##  4 catchmentsp.1~   590949   2962268 NHDFlowli~     5.85       0.127    0.000670 <dbl [~ (((-110.145 45.191, -110.1453 45.1917, -110.146 45.1927, -110.~
##  5 catchmentsp.1~   590661   2962270 NHDFlowli~     3.85       0.107    0.000441 <dbl [~ (((-110.1401 45.1806, -110.1405 45.1814, -110.1417 45.183, -11~
##  6 catchmentsp.1~   589623   2962272 NHDFlowli~     4.28       0.0930   0.000490 <dbl [~ (((-110.3057 45.1818, -110.306 45.1822, -110.3074 45.1831, -11~
##  7 catchmentsp.1~   590407   2962274 NHDFlowli~     5.15       0.107    0.000590 <dbl [~ (((-110.4518 45.1854, -110.4521 45.1877, -110.4512 45.1893, -1~
##  8 catchmentsp.1~   590917   2962276 NHDFlowli~     1.19       0.0560   0.000136 <dbl [~ (((-110.0784 45.1757, -110.0792 45.176, -110.0797 45.1802, -11~
##  9 catchmentsp.1~   591134   2962278 NHDFlowli~     2.37       0.0769   0.000271 <dbl [~ (((-110.4352 45.1695, -110.4355 45.1699, -110.4364 45.1703, -1~
## 10 catchmentsp.1~   591444   2962280 NHDFlowli~     5.19       0.125    0.000594 <dbl [~ (((-110.3992 45.1745, -110.3995 45.1749, -110.4009 45.1761, -1~
## # ... with 4,152 more rows
## 
## $NHDArea
## Simple feature collection with 41 features and 16 fields
## geometry type:  MULTIPOLYGON
## dimension:      XY
## bbox:           xmin: -111.1293 ymin: 44.0661 xmax: -109.667 ymax: 45.8546
## geographic CRS: WGS 84
## # A tibble: 41 x 17
##    id     comid fdate               resolution gnis_id gnis_name areasqkm elevation ftype fcode shape_length shape_area onoffnet purpcode purpdesc bbox 
##    <chr>  <int> <dttm>              <chr>      <chr>   <chr>        <dbl>     <int> <chr> <int>        <dbl>      <dbl>    <int> <chr>    <chr>    <lis>
##  1 nhda~ 2.31e7 2001-02-06 22:00:00 Medium     " "     " "          0.008         0 Stre~ 46006      0.00453    8.50e-7        1 " "      " "      <dbl~
##  2 nhda~ 2.31e7 2001-02-06 22:00:00 Medium     " "     " "          0.01          0 Stre~ 46006      0.00468    1.16e-6        1 " "      " "      <dbl~
##  3 nhda~ 4.17e6 1999-06-14 22:00:00 Medium     " "     " "          0.018         0 Stre~ 46006      0.00705    2.02e-6        1 " "      " "      <dbl~
##  4 nhda~ 4.17e6 1999-06-14 22:00:00 Medium     " "     " "          0.054         0 Stre~ 46006      0.0154     6.11e-6        1 " "      " "      <dbl~
##  5 nhda~ 4.17e6 1999-06-14 22:00:00 Medium     " "     " "          0.015         0 Stre~ 46006      0.00797    1.72e-6        1 " "      " "      <dbl~
##  6 nhda~ 4.17e6 1999-06-14 22:00:00 Medium     " "     " "          0.064         0 Stre~ 46006      0.0215     7.30e-6        1 " "      " "      <dbl~
##  7 nhda~ 4.17e6 1999-06-14 22:00:00 Medium     " "     " "          0.016         0 Stre~ 46006      0.00808    1.84e-6        1 " "      " "      <dbl~
##  8 nhda~ 4.17e6 1999-06-14 22:00:00 Medium     " "     " "          0.009         0 Stre~ 46006      0.00452    1.03e-6        1 " "      " "      <dbl~
##  9 nhda~ 4.17e6 1999-06-14 22:00:00 Medium     " "     " "          0.008         0 Stre~ 46006      0.00358    8.75e-7        1 " "      " "      <dbl~
## 10 nhda~ 4.17e6 1999-06-14 22:00:00 Medium     " "     " "          0.01          0 Stre~ 46006      0.00482    1.16e-6        1 " "      " "      <dbl~
## # ... with 31 more rows, and 1 more variable: geometry <MULTIPOLYGON [°]>
## 
## $NHDWaterbody
## Simple feature collection with 859 features and 23 fields
## geometry type:  MULTIPOLYGON
## dimension:      XY
## bbox:           xmin: -111.3369 ymin: 43.8046 xmax: -109.7161 ymax: 46.2624
## geographic CRS: WGS 84
## # A tibble: 859 x 24
##    id     comid fdate               resolution gnis_id gnis_name areasqkm elevation reachcode ftype fcode shape_length shape_area onoffnet purpcode
##    <chr>  <int> <dttm>              <chr>      <chr>   <chr>        <dbl>     <int> <chr>     <chr> <int>        <dbl>      <dbl>    <int> <chr>   
##  1 nhdw~ 2.96e6 1999-07-19 22:00:00 Medium     " "     " "          0.005         0 10070001~ Lake~ 39001      0.00322    5.97e-7        0 " "     
##  2 nhdw~ 2.96e6 1999-07-19 22:00:00 Medium     " "     " "          0.004         0 10070001~ Lake~ 39001      0.00271    4.51e-7        0 " "     
##  3 nhdw~ 3.06e6 1999-07-19 22:00:00 Medium     "15911~ "Mallard~    0.125         0 10020007~ Lake~ 39004      0.0148     1.42e-5        1 " "     
##  4 nhdw~ 3.06e6 1999-07-19 22:00:00 Medium     "15969~ "Teal La~    0.042         0 10020007~ Lake~ 39004      0.0165     4.71e-6        1 " "     
##  5 nhdw~ 3.06e6 1999-07-19 22:00:00 Medium     "15939~ "Scaup L~    0.022         0 10020007~ Lake~ 39004      0.00775    2.48e-6        0 " "     
##  6 nhdw~ 3.85e6 1999-06-14 22:00:00 Medium     " "     " "          0.03          0 10020008~ Lake~ 39004      0.00745    3.52e-6        1 " "     
##  7 nhdw~ 3.06e6 1999-06-14 22:00:00 Medium     " "     " "          0.013         0 10020007~ Lake~ 39004      0.00449    1.42e-6        1 " "     
##  8 nhdw~ 3.06e6 1999-07-19 22:00:00 Medium     " "     " "          0.025         0 10020007~ Lake~ 39001      0.00796    2.85e-6        0 " "     
##  9 nhdw~ 3.06e6 1999-07-19 22:00:00 Medium     " "     " "          0.015         0 10020007~ Lake~ 39004      0.00518    1.68e-6        0 " "     
## 10 nhdw~ 3.06e6 1999-07-19 22:00:00 Medium     " "     " "          0.019         0 10020007~ Lake~ 39001      0.00596    2.22e-6        0 " "     
## # ... with 849 more rows, and 9 more variables: purpdesc <chr>, meandepth <dbl>, lakevolume <dbl>, maxdepth <dbl>, meandused <dbl>, meandcode <chr>,
## #   lakearea <dbl>, bbox <list>, geometry <MULTIPOLYGON [°]>
```
…
